  6.0000000e+000  1.2000000e+001  1.0000000e+001  8.0000000e+000  2.0000000e+000  5.0000000e+000  7.0000000e+000  8.0000000e+000  1.9458534e+002  2.1682170e+002  1.1354126e+002  1.0000000e+000             Inf
  1.5000000e+001  1.5000000e+001  1.5000000e+001  1.5000000e+001  2.0000000e+000  5.0000000e+000  7.0000000e+000  8.0000000e+000  2.1886174e+002  4.2799719e+001  0.0000000e+000  1.0000000e+000             Inf
  1.5000000e+001  1.5000000e+001  1.5000000e+001  1.5000000e+001  2.0000000e+000  5.0000000e+000  7.0000000e+000  8.0000000e+000  2.1886174e+002  4.2799719e+001  0.0000000e+000  1.0000000e+000             Inf
  6.0000000e+000  1.2000000e+001  1.0000000e+001  8.0000000e+000  2.0000000e+000  5.0000000e+000  7.0000000e+000  8.0000000e+000  1.9458534e+002  2.1682170e+002  1.1354126e+002  1.0000000e+000             Inf
  8.0000000e+000  1.4000000e+001  8.0000000e+000  8.0000000e+000  2.0000000e+000  5.0000000e+000  7.0000000e+000  8.0000000e+000  2.0837923e+002  4.4892276e+001  3.5147898e+001  1.0000000e+000  3.4052158e-001
  8.0000000e+000  1.7000000e+001  1.7000000e+001  8.0000000e+000  2.0000000e+000  5.0000000e+000  7.0000000e+000  8.0000000e+000  2.0353729e+002  8.5055659e+001  3.2744893e+001  1.0000000e+000  3.0360112e-001
  8.0000000e+000  1.7000000e+001  1.7000000e+001  8.0000000e+000  2.0000000e+000  5.0000000e+000  7.0000000e+000  8.0000000e+000  2.0353729e+002  8.5055659e+001  3.2744893e+001  1.0000000e+000  2.7170640e-001
  1.0000000e+001  2.0000000e+001  1.0000000e+001  2.0000000e+001  2.0000000e+000  5.0000000e+000  7.0000000e+000  8.0000000e+000  2.0333425e+002  1.1852840e+002  1.3684704e+001  1.0000000e+000  2.4636749e-001
  8.0000000e+000  1.4000000e+001  8.0000000e+000  8.0000000e+000  2.0000000e+000  5.0000000e+000  7.0000000e+000  8.0000000e+000  2.0837923e+002  4.4892276e+001  3.5147898e+001  1.0000000e+000  2.3263924e-001
  1.0000000e+001  1.2000000e+001  1.0000000e+001  8.0000000e+000  2.0000000e+000  5.0000000e+000  7.0000000e+000  8.0000000e+000  1.9703934e+002  1.4966856e+002  5.5625102e+001  1.0000000e+000  2.2954112e-001
  1.0000000e+001  1.2000000e+001  1.0000000e+001  1.8000000e+001  2.0000000e+000  5.0000000e+000  7.0000000e+000  8.0000000e+000  2.0275087e+002  1.7636521e+002  2.9049332e+001  1.0000000e+000  2.0791855e-001
  7.0000000e+000  1.2000000e+001  1.0000000e+001  8.0000000e+000  2.0000000e+000  5.0000000e+000  7.0000000e+000  8.0000000e+000  1.9464242e+002  2.1013271e+002  9.9244246e+001  1.0000000e+000  1.9859579e-001
  1.5000000e+001  1.2000000e+001  1.5000000e+001  1.5000000e+001  2.0000000e+000  5.0000000e+000  7.0000000e+000  8.0000000e+000  2.1067538e+002  1.0343722e+002  1.8240130e+001  1.0000000e+000  1.9505120e-001
  7.0000000e+000  1.7000000e+001  1.0000000e+001  8.0000000e+000  2.0000000e+000  5.0000000e+000  7.0000000e+000  8.0000000e+000  1.9665389e+002  2.0455010e+002  8.9345041e+001  1.0000000e+000  1.9404953e-001
  1.5000000e+001  1.5000000e+001  1.5000000e+001  1.8000000e+001  2.0000000e+000  5.0000000e+000  7.0000000e+000  8.0000000e+000  2.1585756e+002  9.9497145e+001  2.4842636e+001  1.0000000e+000  1.9349178e-001
  7.0000000e+000  1.7000000e+001  1.7000000e+001  8.0000000e+000  2.0000000e+000  5.0000000e+000  7.0000000e+000  8.0000000e+000  1.9748509e+002  1.4551982e+002  4.4177396e+001  1.0000000e+000  1.8916019e-001
  1.0000000e+001  1.2000000e+001  1.0000000e+001  2.0000000e+001  2.0000000e+000  5.0000000e+000  7.0000000e+000  8.0000000e+000  2.0062441e+002  1.7916589e+002  1.3979525e+001  1.0000000e+000  1.8195871e-001
  1.5000000e+001  1.5000000e+001  1.5000000e+001  1.8000000e+001  2.0000000e+000  5.0000000e+000  7.0000000e+000  8.0000000e+000  2.1585756e+002  9.9497145e+001  2.4842636e+001  1.0000000e+000  1.7420460e-001
  1.5000000e+001  1.5000000e+001  1.5000000e+001  2.0000000e+001  2.0000000e+000  5.0000000e+000  7.0000000e+000  8.0000000e+000  2.1373110e+002  1.0229783e+002  1.7110799e+001  1.0000000e+000  1.5613849e-001
  1.5000000e+001  1.7000000e+001  1.7000000e+001  8.0000000e+000  2.0000000e+000  5.0000000e+000  7.0000000e+000  8.0000000e+000  2.0127424e+002  1.2785538e+002  7.0747317e+001  1.0000000e+000  1.4726887e-001
  1.0000000e+001  1.2000000e+001  1.0000000e+001  8.0000000e+000  2.0000000e+000  5.0000000e+000  7.0000000e+000  8.0000000e+000  1.9703934e+002  1.4966856e+002  5.5625102e+001  1.0000000e+000  1.4054221e-001
  6.0000000e+000  1.4000000e+001  8.0000000e+000  8.0000000e+000  2.0000000e+000  5.0000000e+000  7.0000000e+000  8.0000000e+000  2.0226995e+002  1.1204542e+002  8.4156848e+001  1.0000000e+000  1.2346919e-001
  5.0000000e+000  1.7000000e+001  1.7000000e+001  8.0000000e+000  2.0000000e+000  5.0000000e+000  7.0000000e+000  8.0000000e+000  1.9943618e+002  1.4419162e+002  3.6867226e+001  1.0000000e+000  1.2096183e-001
  1.8000000e+001  1.7000000e+001  1.7000000e+001  8.0000000e+000  2.0000000e+000  5.0000000e+000  7.0000000e+000  8.0000000e+000  2.0083107e+002  1.4175309e+002  6.2184392e+001  1.0000000e+000  1.1406456e-001
  7.0000000e+000  1.7000000e+001  1.0000000e+001  8.0000000e+000  2.0000000e+000  5.0000000e+000  7.0000000e+000  8.0000000e+000  1.9665389e+002  2.0455010e+002  8.9345041e+001  1.0000000e+000  1.1229934e-001
  1.8000000e+001  1.7000000e+001  1.7000000e+001  8.0000000e+000  2.0000000e+000  5.0000000e+000  7.0000000e+000  8.0000000e+000  2.0083107e+002  1.4175309e+002  6.2184392e+001  1.0000000e+000  1.0707784e-001
  1.5000000e+001  1.2000000e+001  1.5000000e+001  1.5000000e+001  2.0000000e+000  5.0000000e+000  7.0000000e+000  8.0000000e+000  2.1067538e+002  1.0343722e+002  1.8240130e+001  1.0000000e+000  1.0280660e-001
  7.0000000e+000  1.2000000e+001  1.0000000e+001  8.0000000e+000  2.0000000e+000  5.0000000e+000  7.0000000e+000  8.0000000e+000  1.9464242e+002  2.1013271e+002  9.9244246e+001  1.0000000e+000  9.7169591e-002
  7.0000000e+000  1.7000000e+001  1.7000000e+001  8.0000000e+000  2.0000000e+000  5.0000000e+000  7.0000000e+000  8.0000000e+000  1.9748509e+002  1.4551982e+002  4.4177396e+001  1.0000000e+000  9.0377079e-002
  6.0000000e+000  1.4000000e+001  8.0000000e+000  8.0000000e+000  2.0000000e+000  5.0000000e+000  7.0000000e+000  8.0000000e+000  2.0226995e+002  1.1204542e+002  8.4156848e+001  1.0000000e+000  8.5299403e-002
  1.0000000e+001  1.7000000e+001  1.0000000e+001  8.0000000e+000  2.0000000e+000  5.0000000e+000  7.0000000e+000  8.0000000e+000  1.9905081e+002  1.4408595e+002  7.5444555e+001  1.0000000e+000  8.4591252e-002
  1.5000000e+001  1.7000000e+001  1.7000000e+001  8.0000000e+000  2.0000000e+000  5.0000000e+000  7.0000000e+000  8.0000000e+000  2.0127424e+002  1.2785538e+002  7.0747317e+001  1.0000000e+000  8.2858596e-002
  5.0000000e+000  1.2000000e+001  1.0000000e+001  8.0000000e+000  2.0000000e+000  5.0000000e+000  7.0000000e+000  8.0000000e+000  1.9659350e+002  2.0880452e+002  7.7331354e+001  1.0000000e+000  7.7960257e-002
  1.5000000e+001  1.2000000e+001  8.0000000e+000  8.0000000e+000  2.0000000e+000  5.0000000e+000  7.0000000e+000  8.0000000e+000  2.0166505e+002  1.3343799e+002  5.5625102e+001  1.0000000e+000  7.2698800e-002
  1.0000000e+001  1.2000000e+001  1.0000000e+001  1.8000000e+001  2.0000000e+000  5.0000000e+000  7.0000000e+000  8.0000000e+000  2.0275087e+002  1.7636521e+002  2.9049332e+001  1.0000000e+000  7.2672980e-002
  5.0000000e+000  1.2000000e+001  1.0000000e+001  8.0000000e+000  2.0000000e+000  5.0000000e+000  7.0000000e+000  8.0000000e+000  1.9659350e+002  2.0880452e+002  7.7331354e+001  1.0000000e+000  7.0234357e-002
  1.0000000e+001  1.2000000e+001  1.0000000e+001  2.0000000e+001  2.0000000e+000  5.0000000e+000  7.0000000e+000  8.0000000e+000  2.0062441e+002  1.7916589e+002  1.3979525e+001  1.0000000e+000  6.7636561e-002
  7.0000000e+000  1.4000000e+001  8.0000000e+000  8.0000000e+000  2.0000000e+000  5.0000000e+000  7.0000000e+000  8.0000000e+000  2.0232703e+002  1.0535643e+002  7.4684961e+001  1.0000000e+000  6.2586595e-002
  7.0000000e+000  1.2000000e+001  1.7000000e+001  8.0000000e+000  2.0000000e+000  5.0000000e+000  7.0000000e+000  8.0000000e+000  1.9547362e+002  2.0615731e+002  9.9244246e+001  1.0000000e+000  6.1342520e-002
  1.0000000e+001  1.5000000e+001  1.0000000e+001  1.0000000e+001  2.0000000e+000  5.0000000e+000  7.0000000e+000  8.0000000e+000  2.1458658e+002  1.0183000e+002  1.8049915e+001  1.0000000e+000  5.6915788e-002
  1.0000000e+001  1.5000000e+001  1.0000000e+001  1.0000000e+001  2.0000000e+000  5.0000000e+000  7.0000000e+000  8.0000000e+000  2.1458658e+002  1.0183000e+002  1.8049915e+001  1.0000000e+000  5.6718090e-002
  1.5000000e+001  1.5000000e+001  1.5000000e+001  2.0000000e+001  2.0000000e+000  5.0000000e+000  7.0000000e+000  8.0000000e+000  2.1373110e+002  1.0229783e+002  1.7110799e+001  1.0000000e+000  5.0057613e-002
  1.5000000e+001  1.2000000e+001  8.0000000e+000  8.0000000e+000  2.0000000e+000  5.0000000e+000  7.0000000e+000  8.0000000e+000  2.0166505e+002  1.3343799e+002  5.5625102e+001  1.0000000e+000  4.8178307e-002
  7.0000000e+000  1.4000000e+001  8.0000000e+000  8.0000000e+000  2.0000000e+000  5.0000000e+000  7.0000000e+000  8.0000000e+000  2.0232703e+002  1.0535643e+002  7.4684961e+001  1.0000000e+000  4.8060163e-002
  7.0000000e+000  1.2000000e+001  1.7000000e+001  8.0000000e+000  2.0000000e+000  5.0000000e+000  7.0000000e+000  8.0000000e+000  1.9547362e+002  2.0615731e+002  9.9244246e+001  1.0000000e+000  4.3474736e-002
  1.0000000e+001  1.7000000e+001  1.0000000e+001  8.0000000e+000  2.0000000e+000  5.0000000e+000  7.0000000e+000  8.0000000e+000  1.9905081e+002  1.4408595e+002  7.5444555e+001  1.0000000e+000  3.3098992e-002
  5.0000000e+000  1.7000000e+001  1.7000000e+001  8.0000000e+000  2.0000000e+000  5.0000000e+000  7.0000000e+000  8.0000000e+000  1.9943618e+002  1.4419162e+002  3.6867226e+001  1.0000000e+000  3.1624014e-002
  6.0000000e+000  1.2000000e+001  1.0000000e+001  8.0000000e+000  2.0000000e+000  5.0000000e+000  7.0000000e+000  8.0000000e+000  1.9458534e+002  2.1682170e+002  1.1354126e+002  1.0000000e+000  0.0000000e+000
  1.5000000e+001  1.5000000e+001  1.5000000e+001  1.5000000e+001  2.0000000e+000  5.0000000e+000  7.0000000e+000  8.0000000e+000  2.1886174e+002  4.2799719e+001  0.0000000e+000  1.0000000e+000  0.0000000e+000
  8.0000000e+000  1.7000000e+001  1.7000000e+001  8.0000000e+000  2.0000000e+000  5.0000000e+000  7.0000000e+000  8.0000000e+000  2.0353729e+002  8.5055659e+001  3.2744893e+001  1.0000000e+000  0.0000000e+000
  8.0000000e+000  1.4000000e+001  8.0000000e+000  8.0000000e+000  2.0000000e+000  5.0000000e+000  7.0000000e+000  8.0000000e+000  2.0837923e+002  4.4892276e+001  3.5147898e+001  1.0000000e+000  0.0000000e+000
  1.5000000e+001  1.5000000e+001  1.5000000e+001  1.8000000e+001  2.0000000e+000  5.0000000e+000  7.0000000e+000  8.0000000e+000  2.1585756e+002  9.9497145e+001  2.4842636e+001  1.0000000e+000  0.0000000e+000
  1.0000000e+001  1.2000000e+001  1.0000000e+001  8.0000000e+000  2.0000000e+000  5.0000000e+000  7.0000000e+000  8.0000000e+000  1.9703934e+002  1.4966856e+002  5.5625102e+001  1.0000000e+000  0.0000000e+000
  7.0000000e+000  1.7000000e+001  1.0000000e+001  8.0000000e+000  2.0000000e+000  5.0000000e+000  7.0000000e+000  8.0000000e+000  1.9665389e+002  2.0455010e+002  8.9345041e+001  1.0000000e+000  0.0000000e+000
  1.8000000e+001  1.7000000e+001  1.7000000e+001  8.0000000e+000  2.0000000e+000  5.0000000e+000  7.0000000e+000  8.0000000e+000  2.0083107e+002  1.4175309e+002  6.2184392e+001  1.0000000e+000  0.0000000e+000
  1.5000000e+001  1.2000000e+001  1.5000000e+001  1.5000000e+001  2.0000000e+000  5.0000000e+000  7.0000000e+000  8.0000000e+000  2.1067538e+002  1.0343722e+002  1.8240130e+001  1.0000000e+000  0.0000000e+000
  7.0000000e+000  1.2000000e+001  1.0000000e+001  8.0000000e+000  2.0000000e+000  5.0000000e+000  7.0000000e+000  8.0000000e+000  1.9464242e+002  2.1013271e+002  9.9244246e+001  1.0000000e+000  0.0000000e+000
  7.0000000e+000  1.7000000e+001  1.7000000e+001  8.0000000e+000  2.0000000e+000  5.0000000e+000  7.0000000e+000  8.0000000e+000  1.9748509e+002  1.4551982e+002  4.4177396e+001  1.0000000e+000  0.0000000e+000
  6.0000000e+000  1.4000000e+001  8.0000000e+000  8.0000000e+000  2.0000000e+000  5.0000000e+000  7.0000000e+000  8.0000000e+000  2.0226995e+002  1.1204542e+002  8.4156848e+001  1.0000000e+000  0.0000000e+000
  1.5000000e+001  1.7000000e+001  1.7000000e+001  8.0000000e+000  2.0000000e+000  5.0000000e+000  7.0000000e+000  8.0000000e+000  2.0127424e+002  1.2785538e+002  7.0747317e+001  1.0000000e+000  0.0000000e+000
  1.0000000e+001  1.2000000e+001  1.0000000e+001  1.8000000e+001  2.0000000e+000  5.0000000e+000  7.0000000e+000  8.0000000e+000  2.0275087e+002  1.7636521e+002  2.9049332e+001  1.0000000e+000  0.0000000e+000
  5.0000000e+000  1.2000000e+001  1.0000000e+001  8.0000000e+000  2.0000000e+000  5.0000000e+000  7.0000000e+000  8.0000000e+000  1.9659350e+002  2.0880452e+002  7.7331354e+001  1.0000000e+000  0.0000000e+000
  1.0000000e+001  1.2000000e+001  1.0000000e+001  2.0000000e+001  2.0000000e+000  5.0000000e+000  7.0000000e+000  8.0000000e+000  2.0062441e+002  1.7916589e+002  1.3979525e+001  1.0000000e+000  0.0000000e+000
  1.5000000e+001  1.5000000e+001  1.5000000e+001  2.0000000e+001  2.0000000e+000  5.0000000e+000  7.0000000e+000  8.0000000e+000  2.1373110e+002  1.0229783e+002  1.7110799e+001  1.0000000e+000  0.0000000e+000
  1.5000000e+001  1.2000000e+001  8.0000000e+000  8.0000000e+000  2.0000000e+000  5.0000000e+000  7.0000000e+000  8.0000000e+000  2.0166505e+002  1.3343799e+002  5.5625102e+001  1.0000000e+000  0.0000000e+000
  7.0000000e+000  1.4000000e+001  8.0000000e+000  8.0000000e+000  2.0000000e+000  5.0000000e+000  7.0000000e+000  8.0000000e+000  2.0232703e+002  1.0535643e+002  7.4684961e+001  1.0000000e+000  0.0000000e+000
  7.0000000e+000  1.2000000e+001  1.7000000e+001  8.0000000e+000  2.0000000e+000  5.0000000e+000  7.0000000e+000  8.0000000e+000  1.9547362e+002  2.0615731e+002  9.9244246e+001  1.0000000e+000  0.0000000e+000
  1.0000000e+001  1.7000000e+001  1.0000000e+001  8.0000000e+000  2.0000000e+000  5.0000000e+000  7.0000000e+000  8.0000000e+000  1.9905081e+002  1.4408595e+002  7.5444555e+001  1.0000000e+000  0.0000000e+000
  5.0000000e+000  1.7000000e+001  1.7000000e+001  8.0000000e+000  2.0000000e+000  5.0000000e+000  7.0000000e+000  8.0000000e+000  1.9943618e+002  1.4419162e+002  3.6867226e+001  1.0000000e+000  0.0000000e+000
  6.0000000e+000  1.2000000e+001  1.0000000e+001  8.0000000e+000  2.0000000e+000  5.0000000e+000  7.0000000e+000  8.0000000e+000  1.9458534e+002  2.1682170e+002  1.1354126e+002  1.0000000e+000  0.0000000e+000
  1.5000000e+001  1.5000000e+001  1.5000000e+001  1.5000000e+001  2.0000000e+000  5.0000000e+000  7.0000000e+000  8.0000000e+000  2.1886174e+002  4.2799719e+001  0.0000000e+000  1.0000000e+000  0.0000000e+000
  8.0000000e+000  1.7000000e+001  1.7000000e+001  8.0000000e+000  2.0000000e+000  5.0000000e+000  7.0000000e+000  8.0000000e+000  2.0353729e+002  8.5055659e+001  3.2744893e+001  1.0000000e+000  0.0000000e+000
  1.0000000e+001  1.2000000e+001  1.0000000e+001  8.0000000e+000  2.0000000e+000  5.0000000e+000  7.0000000e+000  8.0000000e+000  1.9703934e+002  1.4966856e+002  5.5625102e+001  1.0000000e+000  0.0000000e+000
  8.0000000e+000  1.4000000e+001  8.0000000e+000  8.0000000e+000  2.0000000e+000  5.0000000e+000  7.0000000e+000  8.0000000e+000  2.0837923e+002  4.4892276e+001  3.5147898e+001  1.0000000e+000  0.0000000e+000
  7.0000000e+000  1.7000000e+001  1.0000000e+001  8.0000000e+000  2.0000000e+000  5.0000000e+000  7.0000000e+000  8.0000000e+000  1.9665389e+002  2.0455010e+002  8.9345041e+001  1.0000000e+000  0.0000000e+000
  1.8000000e+001  1.7000000e+001  1.7000000e+001  8.0000000e+000  2.0000000e+000  5.0000000e+000  7.0000000e+000  8.0000000e+000  2.0083107e+002  1.4175309e+002  6.2184392e+001  1.0000000e+000  0.0000000e+000
  1.5000000e+001  1.2000000e+001  1.5000000e+001  1.5000000e+001  2.0000000e+000  5.0000000e+000  7.0000000e+000  8.0000000e+000  2.1067538e+002  1.0343722e+002  1.8240130e+001  1.0000000e+000  0.0000000e+000
  7.0000000e+000  1.2000000e+001  1.0000000e+001  8.0000000e+000  2.0000000e+000  5.0000000e+000  7.0000000e+000  8.0000000e+000  1.9464242e+002  2.1013271e+002  9.9244246e+001  1.0000000e+000  0.0000000e+000
  6.0000000e+000  1.4000000e+001  8.0000000e+000  8.0000000e+000  2.0000000e+000  5.0000000e+000  7.0000000e+000  8.0000000e+000  2.0226995e+002  1.1204542e+002  8.4156848e+001  1.0000000e+000  0.0000000e+000
  7.0000000e+000  1.7000000e+001  1.7000000e+001  8.0000000e+000  2.0000000e+000  5.0000000e+000  7.0000000e+000  8.0000000e+000  1.9748509e+002  1.4551982e+002  4.4177396e+001  1.0000000e+000  0.0000000e+000
  1.5000000e+001  1.7000000e+001  1.7000000e+001  8.0000000e+000  2.0000000e+000  5.0000000e+000  7.0000000e+000  8.0000000e+000  2.0127424e+002  1.2785538e+002  7.0747317e+001  1.0000000e+000  0.0000000e+000
  5.0000000e+000  1.2000000e+001  1.0000000e+001  8.0000000e+000  2.0000000e+000  5.0000000e+000  7.0000000e+000  8.0000000e+000  1.9659350e+002  2.0880452e+002  7.7331354e+001  1.0000000e+000  0.0000000e+000
  1.0000000e+001  1.2000000e+001  1.0000000e+001  2.0000000e+001  2.0000000e+000  5.0000000e+000  7.0000000e+000  8.0000000e+000  2.0062441e+002  1.7916589e+002  1.3979525e+001  1.0000000e+000  0.0000000e+000
  1.5000000e+001  1.5000000e+001  1.5000000e+001  2.0000000e+001  2.0000000e+000  5.0000000e+000  7.0000000e+000  8.0000000e+000  2.1373110e+002  1.0229783e+002  1.7110799e+001  1.0000000e+000  0.0000000e+000
  1.5000000e+001  1.2000000e+001  8.0000000e+000  8.0000000e+000  2.0000000e+000  5.0000000e+000  7.0000000e+000  8.0000000e+000  2.0166505e+002  1.3343799e+002  5.5625102e+001  1.0000000e+000  0.0000000e+000
  7.0000000e+000  1.4000000e+001  8.0000000e+000  8.0000000e+000  2.0000000e+000  5.0000000e+000  7.0000000e+000  8.0000000e+000  2.0232703e+002  1.0535643e+002  7.4684961e+001  1.0000000e+000  0.0000000e+000
  7.0000000e+000  1.2000000e+001  1.7000000e+001  8.0000000e+000  2.0000000e+000  5.0000000e+000  7.0000000e+000  8.0000000e+000  1.9547362e+002  2.0615731e+002  9.9244246e+001  1.0000000e+000  0.0000000e+000
  1.0000000e+001  1.7000000e+001  1.0000000e+001  8.0000000e+000  2.0000000e+000  5.0000000e+000  7.0000000e+000  8.0000000e+000  1.9905081e+002  1.4408595e+002  7.5444555e+001  1.0000000e+000  0.0000000e+000
  5.0000000e+000  1.7000000e+001  1.7000000e+001  8.0000000e+000  2.0000000e+000  5.0000000e+000  7.0000000e+000  8.0000000e+000  1.9943618e+002  1.4419162e+002  3.6867226e+001  1.0000000e+000  0.0000000e+000
  1.0000000e+001  1.2000000e+001  1.0000000e+001  1.8000000e+001  2.0000000e+000  5.0000000e+000  7.0000000e+000  8.0000000e+000  2.0275087e+002  1.7636521e+002  2.9049332e+001  1.0000000e+000  0.0000000e+000
  1.5000000e+001  1.5000000e+001  1.5000000e+001  1.5000000e+001  2.0000000e+000  5.0000000e+000  7.0000000e+000  8.0000000e+000  2.1886174e+002  4.2799719e+001  0.0000000e+000  1.0000000e+000  0.0000000e+000
  6.0000000e+000  1.2000000e+001  1.0000000e+001  8.0000000e+000  2.0000000e+000  5.0000000e+000  7.0000000e+000  8.0000000e+000  1.9458534e+002  2.1682170e+002  1.1354126e+002  1.0000000e+000  0.0000000e+000
  8.0000000e+000  1.7000000e+001  1.7000000e+001  8.0000000e+000  2.0000000e+000  5.0000000e+000  7.0000000e+000  8.0000000e+000  2.0353729e+002  8.5055659e+001  3.2744893e+001  1.0000000e+000  0.0000000e+000
  1.0000000e+001  1.2000000e+001  1.0000000e+001  8.0000000e+000  2.0000000e+000  5.0000000e+000  7.0000000e+000  8.0000000e+000  1.9703934e+002  1.4966856e+002  5.5625102e+001  1.0000000e+000  0.0000000e+000
  8.0000000e+000  1.4000000e+001  8.0000000e+000  8.0000000e+000  2.0000000e+000  5.0000000e+000  7.0000000e+000  8.0000000e+000  2.0837923e+002  4.4892276e+001  3.5147898e+001  1.0000000e+000  0.0000000e+000
  7.0000000e+000  1.7000000e+001  1.0000000e+001  8.0000000e+000  2.0000000e+000  5.0000000e+000  7.0000000e+000  8.0000000e+000  1.9665389e+002  2.0455010e+002  8.9345041e+001  1.0000000e+000  0.0000000e+000
  1.8000000e+001  1.7000000e+001  1.7000000e+001  8.0000000e+000  2.0000000e+000  5.0000000e+000  7.0000000e+000  8.0000000e+000  2.0083107e+002  1.4175309e+002  6.2184392e+001  1.0000000e+000  0.0000000e+000
  1.5000000e+001  1.2000000e+001  1.5000000e+001  1.5000000e+001  2.0000000e+000  5.0000000e+000  7.0000000e+000  8.0000000e+000  2.1067538e+002  1.0343722e+002  1.8240130e+001  1.0000000e+000  0.0000000e+000
  7.0000000e+000  1.2000000e+001  1.0000000e+001  8.0000000e+000  2.0000000e+000  5.0000000e+000  7.0000000e+000  8.0000000e+000  1.9464242e+002  2.1013271e+002  9.9244246e+001  1.0000000e+000  0.0000000e+000
  6.0000000e+000  1.4000000e+001  8.0000000e+000  8.0000000e+000  2.0000000e+000  5.0000000e+000  7.0000000e+000  8.0000000e+000  2.0226995e+002  1.1204542e+002  8.4156848e+001  1.0000000e+000  0.0000000e+000
